^C:\USERS\USUARIO\DESKTOP\TP-3-GRAFICOS\TP3\JUEGO\DEBUG\BULLET.OBJ|C:\USERS\USUARIO\DESKTOP\TP-3-GRAFICOS\TP3\JUEGO\DEBUG\GAMESTATE.OBJ|C:\USERS\USUARIO\DESKTOP\TP-3-GRAFICOS\TP3\JUEGO\DEBUG\MAIN.OBJ|C:\USERS\USUARIO\DESKTOP\TP-3-GRAFICOS\TP3\JUEGO\DEBUG\MENUSTATE.OBJ|C:\USERS\USUARIO\DESKTOP\TP-3-GRAFICOS\TP3\JUEGO\DEBUG\MOVINGOBJECT.OBJ
C:\WINDOWS\GLOBALIZATION\SORTING\SORTDEFAULT.NLS
C:\USERS\USUARIO\DESKTOP\TP-3-GRAFICOS\TP3\ALLEGRO_5.1.12_X86\LIB\ALLEGRO-DEBUG.LIB
C:\USERS\USUARIO\DESKTOP\TP-3-GRAFICOS\TP3\ALLEGRO_5.1.12_X86\LIB\ALLEGRO_MAIN-DEBUG.LIB
C:\USERS\USUARIO\DESKTOP\TP-3-GRAFICOS\TP3\ALLEGRO_5.1.12_X86\LIB\ALLEGRO_IMAGE-DEBUG.LIB
C:\USERS\USUARIO\DESKTOP\TP-3-GRAFICOS\TP3\ALLEGRO_5.1.12_X86\LIB\ALLEGRO_FONT-DEBUG.LIB
C:\USERS\USUARIO\DESKTOP\TP-3-GRAFICOS\TP3\ALLEGRO_5.1.12_X86\LIB\ALLEGRO_TTF-DEBUG.LIB
C:\PROGRAM FILES (X86)\WINDOWS KITS\8.1\LIB\WINV6.3\UM\X86\KERNEL32.LIB
C:\PROGRAM FILES (X86)\WINDOWS KITS\8.1\LIB\WINV6.3\UM\X86\USER32.LIB
C:\PROGRAM FILES (X86)\WINDOWS KITS\8.1\LIB\WINV6.3\UM\X86\GDI32.LIB
C:\PROGRAM FILES (X86)\WINDOWS KITS\8.1\LIB\WINV6.3\UM\X86\WINSPOOL.LIB
C:\PROGRAM FILES (X86)\WINDOWS KITS\8.1\LIB\WINV6.3\UM\X86\COMDLG32.LIB
C:\PROGRAM FILES (X86)\WINDOWS KITS\8.1\LIB\WINV6.3\UM\X86\ADVAPI32.LIB
C:\PROGRAM FILES (X86)\WINDOWS KITS\8.1\LIB\WINV6.3\UM\X86\SHELL32.LIB
C:\PROGRAM FILES (X86)\WINDOWS KITS\8.1\LIB\WINV6.3\UM\X86\OLE32.LIB
C:\PROGRAM FILES (X86)\WINDOWS KITS\8.1\LIB\WINV6.3\UM\X86\OLEAUT32.LIB
C:\PROGRAM FILES (X86)\WINDOWS KITS\8.1\LIB\WINV6.3\UM\X86\UUID.LIB
C:\PROGRAM FILES (X86)\WINDOWS KITS\8.1\LIB\WINV6.3\UM\X86\ODBC32.LIB
C:\PROGRAM FILES (X86)\WINDOWS KITS\8.1\LIB\WINV6.3\UM\X86\ODBCCP32.LIB
C:\USERS\USUARIO\DESKTOP\TP-3-GRAFICOS\TP3\JUEGO\DEBUG\BULLET.OBJ
C:\USERS\USUARIO\DESKTOP\TP-3-GRAFICOS\TP3\JUEGO\DEBUG\GAMESTATE.OBJ
C:\USERS\USUARIO\DESKTOP\TP-3-GRAFICOS\TP3\JUEGO\DEBUG\MAIN.OBJ
C:\USERS\USUARIO\DESKTOP\TP-3-GRAFICOS\TP3\JUEGO\DEBUG\MENUSTATE.OBJ
C:\USERS\USUARIO\DESKTOP\TP-3-GRAFICOS\TP3\JUEGO\DEBUG\MOVINGOBJECT.OBJ
C:\WINDOWS\SYSTEM32\TZRES.DLL
C:\PROGRAM FILES (X86)\MICROSOFT VISUAL STUDIO 14.0\VC\LIB\MSVCRTD.LIB
C:\PROGRAM FILES (X86)\MICROSOFT VISUAL STUDIO 14.0\VC\LIB\OLDNAMES.LIB
C:\PROGRAM FILES (X86)\MICROSOFT VISUAL STUDIO 14.0\VC\LIB\MSVCPRTD.LIB
C:\PROGRAM FILES (X86)\MICROSOFT VISUAL STUDIO 14.0\VC\LIB\VCRUNTIMED.LIB
C:\PROGRAM FILES (X86)\WINDOWS KITS\10\LIB\10.0.10240.0\UCRT\X86\UCRTD.LIB
